<svg width="30px" height="31px" viewBox="0 0 30 31" version="1.1" xmlns="http://www.w3.org/2000/svg" xmlns:xlink="http://www.w3.org/1999/xlink">
    <g id="Page-1" stroke="none" stroke-width="1" fill="none" fill-rule="evenodd">
        <g id="Apple-TV-Copy-2" transform="translate(-222.000000, -4859.000000)" fill="#E21B1B">
            <g id="OFFERS" transform="translate(150.000000, 4152.000000)">
                <g id="BASIC">
                    <g id="DELETE-2" transform="translate(72.000000, 707.837838)">
                        <g id="delete">
                            <polygon id="Path" points="23.6821875 0 15 8.6821875 6.3178125 0 0 6.3178125 8.6821875 15 0 23.6821875 6.3178125 30 15 21.3178125 23.6821875 30 30 23.6821875 21.3178125 15 30 6.3178125"></polygon>
                        </g>
                    </g>
                </g>
            </g>
        </g>
    </g>
</svg>