<svg width="715px" height="716px" viewBox="0 0 715 716" version="1.1" xmlns="http://www.w3.org/2000/svg" xmlns:xlink="http://www.w3.org/1999/xlink">
    <g id="Page-1" stroke="none" stroke-width="1" fill="none" fill-rule="evenodd">
        <g id="Apple-TV-Copy-4" transform="translate(-617.000000, -1561.000000)" fill="#FF96A8">
            <path d="M744,1561 L1205,1561 C1275.14016,1561 1332,1617.85984 1332,1688 L1332,2150 C1332,2220.14016 1275.14016,2277 1205,2277 L744,2277 C673.859837,2277 617,2220.14016 617,2150 L617,1688 C617,1617.85984 673.859837,1561 744,1561 Z M877.996759,1685.92696 C804.551808,1715.67411 748.648395,1778.3017 727.440015,1854.95117 C724.498546,1865.58069 730.724538,1876.61075 741.382149,1879.56201 C752.027525,1882.50628 763.048435,1876.26135 765.992711,1865.61598 C790.351914,1777.57339 867.983067,1714.1364 959.166656,1707.76022 C1060.61814,1700.66604 1148.48699,1764.37149 1178.72279,1853.38151 L1138.81501,1818.69021 C1130.48074,1811.44534 1117.84753,1812.32874 1110.60265,1820.66301 C1103.35805,1829.00118 1104.23728,1841.63077 1112.57573,1848.87926 L1196.53966,1921.868 C1209.96455,1933.53808 1230.84972,1923.09875 1229.61045,1905.3764 C1222.59253,1805.01541 1158.78159,1722.31126 1071.75786,1686.43506 C1073.83359,1682.23387 1075,1677.50315 1075,1672.5 C1075,1655.10303 1060.89697,1641 1043.5,1641 L906.5,1641 C889.10303,1641 875,1655.10303 875,1672.5 C875,1677.30246 876.074714,1681.85391 877.996759,1685.92696 Z M835.892383,1997.58884 L751.928717,1924.604 C738.503554,1912.93003 717.61839,1923.36936 718.857657,1941.09171 C728.728471,2082.25092 850.951985,2188.4799 992.091711,2178.61045 C1102.94212,2170.85904 1192.7738,2093.63113 1221.0242,1991.51721 C1223.9721,1980.86766 1217.72744,1969.85065 1207.08206,1966.90638 C1196.43669,1963.9621 1185.4194,1970.20286 1182.47513,1980.84824 C1158.11619,2068.89472 1080.48504,2132.33171 989.301452,2138.70789 C887.849968,2145.80207 799.981119,2082.09662 769.745316,1993.08659 L809.653097,2027.7779 C817.98737,2035.02277 830.620583,2034.13937 837.865455,2025.8051 C845.113952,2017.46666 844.230824,2004.83734 835.892383,1997.58884 Z M1072.66167,1916.35132 C1068.86648,1862.07761 1021.62504,1821.01125 967.351325,1824.80644 C913.077605,1828.60162 872.011247,1875.84306 875.806435,1930.11678 C879.601624,1984.3905 926.843065,2025.45686 981.116784,2021.66167 C1035.3905,2017.86648 1076.45686,1970.62504 1072.66167,1916.35132 Z M978.326525,1981.75911 C946.057666,1984.01557 917.965456,1959.59538 915.708997,1927.32652 C913.452539,1895.05767 937.872725,1866.96546 970.141584,1864.709 C1002.41044,1862.45254 1030.50265,1886.87272 1032.75911,1919.14158 C1035.01557,1951.41044 1010.59538,1979.50265 978.326525,1981.75911 Z M872,1754 C858.192881,1754 847,1765.19288 847,1779 C847,1792.80712 858.192881,1804 872,1804 C885.807119,1804 897,1792.80712 897,1779 C897,1765.19288 885.807119,1754 872,1754 Z" id="Combined-Shape"></path>
        </g>
    </g>
</svg>