<svg preserveAspectRatio="none" viewBox="0 0 1599 1500" version="1.1" xmlns="http://www.w3.org/2000/svg" xmlns:xlink="http://www.w3.org/1999/xlink">
    <defs>
        <rect id="path-1" x="0" y="0" width="1920" height="6428"></rect>
        <rect id="path-3" x="0" y="0" width="1920" height="6428"></rect>
        <rect id="path-5" x="0" y="0" width="2511" height="6608"></rect>
        <rect id="path-7" x="0" y="0" width="2511" height="8886"></rect>
    </defs>
    <g id="Page-1" stroke="none" stroke-width="1" fill="none" fill-rule="evenodd">
        <g id="Apple-TV-Copy-2" transform="translate(-321.000000, 0.000000)">
            <g id="Background" transform="translate(321.000000, -29.000000)">
                <mask id="mask-2" fill="white">
                    <use xlink:href="#path-1"></use>
                </mask>
                <g id="Mask"></g>
                <g id="Path" opacity="0.519228981" mask="url(#mask-2)">
                    <mask id="mask-4" fill="white">
                        <use xlink:href="#path-3"></use>
                    </mask>
                    <g id="Mask"></g>
                    <path d="M1429.67309,45.2923361 C1189.1993,265.602638 711.630955,709.347377 960,1260.43167 C1208.36905,1811.51596 1241.31119,2113.2102 902.300064,2666.77473 C469.881757,3372.862 1261.59221,3751.76698 711.630955,4958.15911 C161.669695,6164.55124 151.156843,6349.09808 452.968434,6738.11812 C754.780025,7127.13816 2077.82541,6584.24637 1907.09697,6315.7422 C1891.22333,6290.77778 1562.75448,5596.19859 1562.75448,4722.01518 C1562.75448,3847.83177 1999.65681,3783.1903 2110.52041,3312.1755 C2401.50995,2075.87815 1426.62224,2345.63862 1620,1342.93942 C1813.37776,340.240216 2006.16042,484.290836 1957.95892,152.946895 C1889.47824,-317.799025 1570.80697,-84.0076097 1429.67309,45.2923361 Z" fill="#FFB4BC" mask="url(#mask-4)"></path>
                </g>
                <g id="Path" opacity="0.600492932" mask="url(#mask-2)">
                    <g transform="translate(-405.000000, 0.000000)">
                        <mask id="mask-6" fill="white">
                            <use xlink:href="#path-5"></use>
                        </mask>
                        <g id="Mask" stroke="none" fill="none"></g>
                        <path d="M1870.4879,45.5358905 C1555.79537,272.040911 930.832502,728.262934 1255.85704,1294.8427 C1580.88158,1861.42246 1623.99084,2171.59979 1180.34886,2740.72954 C614.470929,3466.67067 1650.53131,3856.22976 930.832502,5096.54341 C211.133695,6336.85706 197.376205,6526.59302 592.337555,6926.55159 C987.298906,7326.51015 2718.68301,6768.35324 2495.26172,6492.29923 C2474.48892,6466.63286 2044.64293,5752.52339 2044.64293,4853.75955 C2044.64293,3954.99571 2616.38881,3888.53665 2761.46885,3404.27779 C3142.26808,2133.21803 1866.49545,2410.56367 2119.55645,1379.67041 C2372.61745,348.77716 2624.89967,496.878218 2561.82148,156.217497 C2472.20523,-327.764929 2055.18071,-87.3997312 1870.4879,45.5358905 Z" id="Path" stroke="none" fill="#FFB4BC" fill-rule="evenodd" mask="url(#mask-6)"></path>
                    </g>
                </g>
                <g id="Path" opacity="0.600492932" mask="url(#mask-2)">
                    <g transform="translate(-296.000000, -630.000000)">
                        <mask id="mask-8" fill="white">
                            <use xlink:href="#path-7"></use>
                        </mask>
                        <g id="Mask" stroke="none" fill="none"></g>
                        <path d="M1870.4879,60.9883727 C1555.79537,365.594881 930.832502,979.127404 1255.85704,1741.07026 C1580.88158,2503.01312 1623.99084,2920.1431 1180.34886,3685.5152 C614.470929,4661.76902 1650.53131,5185.65249 930.832502,6853.64028 C211.133695,8521.62806 197.376205,8776.78713 592.337555,9314.65592 C987.298906,9852.52471 2718.68301,9101.909 2495.26172,8730.66846 C2474.48892,8696.15202 2044.64293,7735.80955 2044.64293,6527.1418 C2044.64293,5318.47405 2616.38881,5229.09916 2761.46885,4577.86237 C3142.26808,2868.52687 1866.49545,3241.50441 2119.55645,1855.14753 C2372.61745,468.790654 2624.89967,667.958628 2561.82148,209.834245 C2472.20523,-441.030782 2055.18071,-117.784951 1870.4879,60.9883727 Z" id="Path" stroke="none" fill="#FFB4BC" fill-rule="evenodd" mask="url(#mask-8)"></path>
                    </g>
                </g>
            </g>
        </g>
    </g>
</svg>